{
  "files": {
    "main.css": "/static/css/main.6869deff.chunk.css",
    "main.js": "/static/js/main.75093557.chunk.js",
    "main.js.map": "/static/js/main.75093557.chunk.js.map",
    "runtime-main.js": "/static/js/runtime-main.1369a9dd.js",
    "runtime-main.js.map": "/static/js/runtime-main.1369a9dd.js.map",
    "static/js/2.aa350205.chunk.js": "/static/js/2.aa350205.chunk.js",
    "static/js/2.aa350205.chunk.js.map": "/static/js/2.aa350205.chunk.js.map",
    "index.html": "/index.html",
    "static/css/main.6869deff.chunk.css.map": "/static/css/main.6869deff.chunk.css.map",
    "static/js/2.aa350205.chunk.js.LICENSE.txt": "/static/js/2.aa350205.chunk.js.LICENSE.txt"
  },
  "entrypoints": [
    "static/js/runtime-main.1369a9dd.js",
    "static/js/2.aa350205.chunk.js",
    "static/css/main.6869deff.chunk.css",
    "static/js/main.75093557.chunk.js"
  ]
}